{
	"config_name" : "develop",
	"jwt_config" : {
		"secretKey":"itcast",
		"expiresIn":86400
	},
	"upload_config":{
		"baseURL":"http://localhost:",
		"upload_ueditor":"uploads/ueditor",
		"simple_upload_redirect":"http://localhost/reload"
	},
	"db_config" : {
		"protocol" : "mysql",
		"host" : "localhost",
		"database" : "itcast_mall",
		"user" : "root",
		"password" : "password",
		"port" : 3306
	}
}